# Created at 2022-01-25T07:32:24.072
Exiting self fork JVM. Received SHUTDOWN command from Maven shutdown hook.
Thread dump before exiting the process (29752@ULVMCTMUFT106):
"logback-appender-logstash-10.100.246.82:5959-4" 
   java.lang.Thread.State: RUNNABLE
        at java.net.SocketInputStream.socketRead0(Native Method)
        at java.net.SocketInputStream.socketRead(SocketInputStream.java:116)
        at java.net.SocketInputStream.read(SocketInputStream.java:171)
        at java.net.SocketInputStream.read(SocketInputStream.java:141)
        at java.net.SocketInputStream.read(SocketInputStream.java:224)
        at net.logstash.logback.appender.AbstractLogstashTcpSocketAppender$TcpSendingEventHandler$ReaderCallable.call(AbstractLogstashTcpSocketAppender.java:435)
        at net.logstash.logback.appender.AbstractLogstashTcpSocketAppender$TcpSendingEventHandler$ReaderCallable.call(AbstractLogstashTcpSocketAppender.java:420)
        at java.util.concurrent.FutureTask.run(FutureTask.java:266)
        at java.util.concurrent.ScheduledThreadPoolExecutor$ScheduledFutureTask.access$201(ScheduledThreadPoolExecutor.java:180)
        at java.util.concurrent.ScheduledThreadPoolExecutor$ScheduledFutureTask.run(ScheduledThreadPoolExecutor.java:293)
        at java.util.concurrent.ThreadPoolExecutor.runWorker(ThreadPoolExecutor.java:1149)
        at java.util.concurrent.ThreadPoolExecutor$Worker.run(ThreadPoolExecutor.java:624)
        at java.lang.Thread.run(Thread.java:748)

"logback-appender-logstash-10.100.246.82:5959-2" 
   java.lang.Thread.State: WAITING
        at sun.misc.Unsafe.park(Native Method)
        at java.util.concurrent.locks.LockSupport.park(LockSupport.java:175)
        at java.util.concurrent.locks.AbstractQueuedSynchronizer$ConditionObject.await(AbstractQueuedSynchronizer.java:2039)
        at net.logstash.logback.encoder.com.lmax.disruptor.BlockingWaitStrategy.waitFor(BlockingWaitStrategy.java:47)
        at net.logstash.logback.encoder.com.lmax.disruptor.ProcessingSequenceBarrier.waitFor(ProcessingSequenceBarrier.java:56)
        at net.logstash.logback.encoder.com.lmax.disruptor.BatchEventProcessor.processEvents(BatchEventProcessor.java:159)
        at net.logstash.logback.encoder.com.lmax.disruptor.BatchEventProcessor.run(BatchEventProcessor.java:125)
        at java.util.concurrent.Executors$RunnableAdapter.call(Executors.java:511)
        at java.util.concurrent.FutureTask.run(FutureTask.java:266)
        at java.util.concurrent.ScheduledThreadPoolExecutor$ScheduledFutureTask.access$201(ScheduledThreadPoolExecutor.java:180)
        at java.util.concurrent.ScheduledThreadPoolExecutor$ScheduledFutureTask.run(ScheduledThreadPoolExecutor.java:293)
        at java.util.concurrent.ThreadPoolExecutor.runWorker(ThreadPoolExecutor.java:1149)
        at java.util.concurrent.ThreadPoolExecutor$Worker.run(ThreadPoolExecutor.java:624)
        at java.lang.Thread.run(Thread.java:748)

"AWT-Windows" 
   java.lang.Thread.State: RUNNABLE
        at sun.awt.windows.WToolkit.eventLoop(Native Method)
        at sun.awt.windows.WToolkit.run(WToolkit.java:315)
        at java.lang.Thread.run(Thread.java:748)

"AWT-Shutdown" 
   java.lang.Thread.State: TIMED_WAITING
        at java.lang.Object.wait(Native Method)
        at sun.awt.AWTAutoShutdown.run(AWTAutoShutdown.java:314)
        at java.lang.Thread.run(Thread.java:748)

"Java2D Disposer" 
   java.lang.Thread.State: WAITING
        at java.lang.Object.wait(Native Method)
        at java.lang.ref.ReferenceQueue.remove(ReferenceQueue.java:144)
        at java.lang.ref.ReferenceQueue.remove(ReferenceQueue.java:165)
        at sun.java2d.Disposer.run(Disposer.java:148)
        at java.lang.Thread.run(Thread.java:748)

"Exec Stream Pumper" 
   java.lang.Thread.State: RUNNABLE
        at java.io.FileInputStream.readBytes(Native Method)
        at java.io.FileInputStream.read(FileInputStream.java:233)
        at org.apache.commons.exec.StreamPumper.run(StreamPumper.java:107)
        at java.lang.Thread.run(Thread.java:748)

"Exec Stream Pumper" 
   java.lang.Thread.State: RUNNABLE
        at java.io.FileInputStream.readBytes(Native Method)
        at java.io.FileInputStream.read(FileInputStream.java:255)
        at java.io.BufferedInputStream.fill(BufferedInputStream.java:246)
        at java.io.BufferedInputStream.read1(BufferedInputStream.java:286)
        at java.io.BufferedInputStream.read(BufferedInputStream.java:345)
        at java.io.FilterInputStream.read(FilterInputStream.java:107)
        at org.apache.commons.exec.StreamPumper.run(StreamPumper.java:107)
        at java.lang.Thread.run(Thread.java:748)

"UrlChecker-2" 
   java.lang.Thread.State: TIMED_WAITING
        at sun.misc.Unsafe.park(Native Method)
        at java.util.concurrent.locks.LockSupport.parkNanos(LockSupport.java:215)
        at java.util.concurrent.SynchronousQueue$TransferStack.awaitFulfill(SynchronousQueue.java:460)
        at java.util.concurrent.SynchronousQueue$TransferStack.transfer(SynchronousQueue.java:362)
        at java.util.concurrent.SynchronousQueue.poll(SynchronousQueue.java:941)
        at java.util.concurrent.ThreadPoolExecutor.getTask(ThreadPoolExecutor.java:1073)
        at java.util.concurrent.ThreadPoolExecutor.runWorker(ThreadPoolExecutor.java:1134)
        at java.util.concurrent.ThreadPoolExecutor$Worker.run(ThreadPoolExecutor.java:624)
        at java.lang.Thread.run(Thread.java:748)

"Exec Default Executor" 
   java.lang.Thread.State: RUNNABLE
        at java.lang.ProcessImpl.waitForInterruptibly(Native Method)
        at java.lang.ProcessImpl.waitFor(ProcessImpl.java:507)
        at org.apache.commons.exec.DefaultExecutor.executeInternal(DefaultExecutor.java:364)
        at org.apache.commons.exec.DefaultExecutor.access$200(DefaultExecutor.java:48)
        at org.apache.commons.exec.DefaultExecutor$1.run(DefaultExecutor.java:200)
        at java.lang.Thread.run(Thread.java:748)

"mysql-cj-abandoned-connection-cleanup" 
   java.lang.Thread.State: TIMED_WAITING
        at java.lang.Object.wait(Native Method)
        at java.lang.ref.ReferenceQueue.remove(ReferenceQueue.java:144)
        at com.mysql.cj.jdbc.AbandonedConnectionCleanupThread.run(AbandonedConnectionCleanupThread.java:85)
        at java.util.concurrent.ThreadPoolExecutor.runWorker(ThreadPoolExecutor.java:1149)
        at java.util.concurrent.ThreadPoolExecutor$Worker.run(ThreadPoolExecutor.java:624)
        at java.lang.Thread.run(Thread.java:748)

"I/O dispatcher 8" 
   java.lang.Thread.State: RUNNABLE
        at sun.nio.ch.WindowsSelectorImpl$SubSelector.poll0(Native Method)
        at sun.nio.ch.WindowsSelectorImpl$SubSelector.poll(WindowsSelectorImpl.java:296)
        at sun.nio.ch.WindowsSelectorImpl$SubSelector.access$400(WindowsSelectorImpl.java:278)
        at sun.nio.ch.WindowsSelectorImpl.doSelect(WindowsSelectorImpl.java:159)
        at sun.nio.ch.SelectorImpl.lockAndDoSelect(SelectorImpl.java:86)
        at sun.nio.ch.SelectorImpl.select(SelectorImpl.java:97)
        at org.apache.http.impl.nio.reactor.AbstractIOReactor.execute(AbstractIOReactor.java:255)
        at org.apache.http.impl.nio.reactor.BaseIOReactor.execute(BaseIOReactor.java:104)
        at org.apache.http.impl.nio.reactor.AbstractMultiworkerIOReactor$Worker.run(AbstractMultiworkerIOReactor.java:591)
        at java.lang.Thread.run(Thread.java:748)

"I/O dispatcher 7" 
   java.lang.Thread.State: RUNNABLE
        at sun.nio.ch.WindowsSelectorImpl$SubSelector.poll0(Native Method)
        at sun.nio.ch.WindowsSelectorImpl$SubSelector.poll(WindowsSelectorImpl.java:296)
        at sun.nio.ch.WindowsSelectorImpl$SubSelector.access$400(WindowsSelectorImpl.java:278)
        at sun.nio.ch.WindowsSelectorImpl.doSelect(WindowsSelectorImpl.java:159)
        at sun.nio.ch.SelectorImpl.lockAndDoSelect(SelectorImpl.java:86)
        at sun.nio.ch.SelectorImpl.select(SelectorImpl.java:97)
        at org.apache.http.impl.nio.reactor.AbstractIOReactor.execute(AbstractIOReactor.java:255)
        at org.apache.http.impl.nio.reactor.BaseIOReactor.execute(BaseIOReactor.java:104)
        at org.apache.http.impl.nio.reactor.AbstractMultiworkerIOReactor$Worker.run(AbstractMultiworkerIOReactor.java:591)
        at java.lang.Thread.run(Thread.java:748)

"I/O dispatcher 6" 
   java.lang.Thread.State: RUNNABLE
        at sun.nio.ch.WindowsSelectorImpl$SubSelector.poll0(Native Method)
        at sun.nio.ch.WindowsSelectorImpl$SubSelector.poll(WindowsSelectorImpl.java:296)
        at sun.nio.ch.WindowsSelectorImpl$SubSelector.access$400(WindowsSelectorImpl.java:278)
        at sun.nio.ch.WindowsSelectorImpl.doSelect(WindowsSelectorImpl.java:159)
        at sun.nio.ch.SelectorImpl.lockAndDoSelect(SelectorImpl.java:86)
        at sun.nio.ch.SelectorImpl.select(SelectorImpl.java:97)
        at org.apache.http.impl.nio.reactor.AbstractIOReactor.execute(AbstractIOReactor.java:255)
        at org.apache.http.impl.nio.reactor.BaseIOReactor.execute(BaseIOReactor.java:104)
        at org.apache.http.impl.nio.reactor.AbstractMultiworkerIOReactor$Worker.run(AbstractMultiworkerIOReactor.java:591)
        at java.lang.Thread.run(Thread.java:748)

"I/O dispatcher 5" 
   java.lang.Thread.State: RUNNABLE
        at sun.nio.ch.WindowsSelectorImpl$SubSelector.poll0(Native Method)
        at sun.nio.ch.WindowsSelectorImpl$SubSelector.poll(WindowsSelectorImpl.java:296)
        at sun.nio.ch.WindowsSelectorImpl$SubSelector.access$400(WindowsSelectorImpl.java:278)
        at sun.nio.ch.WindowsSelectorImpl.doSelect(WindowsSelectorImpl.java:159)
        at sun.nio.ch.SelectorImpl.lockAndDoSelect(SelectorImpl.java:86)
        at sun.nio.ch.SelectorImpl.select(SelectorImpl.java:97)
        at org.apache.http.impl.nio.reactor.AbstractIOReactor.execute(AbstractIOReactor.java:255)
        at org.apache.http.impl.nio.reactor.BaseIOReactor.execute(BaseIOReactor.java:104)
        at org.apache.http.impl.nio.reactor.AbstractMultiworkerIOReactor$Worker.run(AbstractMultiworkerIOReactor.java:591)
        at java.lang.Thread.run(Thread.java:748)

"I/O dispatcher 4" 
   java.lang.Thread.State: RUNNABLE
        at sun.nio.ch.WindowsSelectorImpl$SubSelector.poll0(Native Method)
        at sun.nio.ch.WindowsSelectorImpl$SubSelector.poll(WindowsSelectorImpl.java:296)
        at sun.nio.ch.WindowsSelectorImpl$SubSelector.access$400(WindowsSelectorImpl.java:278)
        at sun.nio.ch.WindowsSelectorImpl.doSelect(WindowsSelectorImpl.java:159)
        at sun.nio.ch.SelectorImpl.lockAndDoSelect(SelectorImpl.java:86)
        at sun.nio.ch.SelectorImpl.select(SelectorImpl.java:97)
        at org.apache.http.impl.nio.reactor.AbstractIOReactor.execute(AbstractIOReactor.java:255)
        at org.apache.http.impl.nio.reactor.BaseIOReactor.execute(BaseIOReactor.java:104)
        at org.apache.http.impl.nio.reactor.AbstractMultiworkerIOReactor$Worker.run(AbstractMultiworkerIOReactor.java:591)
        at java.lang.Thread.run(Thread.java:748)

"I/O dispatcher 3" 
   java.lang.Thread.State: RUNNABLE
        at sun.nio.ch.WindowsSelectorImpl$SubSelector.poll0(Native Method)
        at sun.nio.ch.WindowsSelectorImpl$SubSelector.poll(WindowsSelectorImpl.java:296)
        at sun.nio.ch.WindowsSelectorImpl$SubSelector.access$400(WindowsSelectorImpl.java:278)
        at sun.nio.ch.WindowsSelectorImpl.doSelect(WindowsSelectorImpl.java:159)
        at sun.nio.ch.SelectorImpl.lockAndDoSelect(SelectorImpl.java:86)
        at sun.nio.ch.SelectorImpl.select(SelectorImpl.java:97)
        at org.apache.http.impl.nio.reactor.AbstractIOReactor.execute(AbstractIOReactor.java:255)
        at org.apache.http.impl.nio.reactor.BaseIOReactor.execute(BaseIOReactor.java:104)
        at org.apache.http.impl.nio.reactor.AbstractMultiworkerIOReactor$Worker.run(AbstractMultiworkerIOReactor.java:591)
        at java.lang.Thread.run(Thread.java:748)

"I/O dispatcher 2" 
   java.lang.Thread.State: RUNNABLE
        at sun.nio.ch.WindowsSelectorImpl$SubSelector.poll0(Native Method)
        at sun.nio.ch.WindowsSelectorImpl$SubSelector.poll(WindowsSelectorImpl.java:296)
        at sun.nio.ch.WindowsSelectorImpl$SubSelector.access$400(WindowsSelectorImpl.java:278)
        at sun.nio.ch.WindowsSelectorImpl.doSelect(WindowsSelectorImpl.java:159)
        at sun.nio.ch.SelectorImpl.lockAndDoSelect(SelectorImpl.java:86)
        at sun.nio.ch.SelectorImpl.select(SelectorImpl.java:97)
        at org.apache.http.impl.nio.reactor.AbstractIOReactor.execute(AbstractIOReactor.java:255)
        at org.apache.http.impl.nio.reactor.BaseIOReactor.execute(BaseIOReactor.java:104)
        at org.apache.http.impl.nio.reactor.AbstractMultiworkerIOReactor$Worker.run(AbstractMultiworkerIOReactor.java:591)
        at java.lang.Thread.run(Thread.java:748)

"I/O dispatcher 1" 
   java.lang.Thread.State: RUNNABLE
        at sun.nio.ch.WindowsSelectorImpl$SubSelector.poll0(Native Method)
        at sun.nio.ch.WindowsSelectorImpl$SubSelector.poll(WindowsSelectorImpl.java:296)
        at sun.nio.ch.WindowsSelectorImpl$SubSelector.access$400(WindowsSelectorImpl.java:278)
        at sun.nio.ch.WindowsSelectorImpl.doSelect(WindowsSelectorImpl.java:159)
        at sun.nio.ch.SelectorImpl.lockAndDoSelect(SelectorImpl.java:86)
        at sun.nio.ch.SelectorImpl.select(SelectorImpl.java:97)
        at org.apache.http.impl.nio.reactor.AbstractIOReactor.execute(AbstractIOReactor.java:255)
        at org.apache.http.impl.nio.reactor.BaseIOReactor.execute(BaseIOReactor.java:104)
        at org.apache.http.impl.nio.reactor.AbstractMultiworkerIOReactor$Worker.run(AbstractMultiworkerIOReactor.java:591)
        at java.lang.Thread.run(Thread.java:748)

"pool-2-thread-1" 
   java.lang.Thread.State: RUNNABLE
        at sun.nio.ch.WindowsSelectorImpl$SubSelector.poll0(Native Method)
        at sun.nio.ch.WindowsSelectorImpl$SubSelector.poll(WindowsSelectorImpl.java:296)
        at sun.nio.ch.WindowsSelectorImpl$SubSelector.access$400(WindowsSelectorImpl.java:278)
        at sun.nio.ch.WindowsSelectorImpl.doSelect(WindowsSelectorImpl.java:159)
        at sun.nio.ch.SelectorImpl.lockAndDoSelect(SelectorImpl.java:86)
        at sun.nio.ch.SelectorImpl.select(SelectorImpl.java:97)
        at org.apache.http.impl.nio.reactor.AbstractMultiworkerIOReactor.execute(AbstractMultiworkerIOReactor.java:343)
        at org.apache.http.impl.nio.conn.PoolingNHttpClientConnectionManager.execute(PoolingNHttpClientConnectionManager.java:221)
        at org.apache.http.impl.nio.client.CloseableHttpAsyncClientBase$1.run(CloseableHttpAsyncClientBase.java:64)
        at java.lang.Thread.run(Thread.java:748)

"surefire-forkedjvm-command-thread" 
   java.lang.Thread.State: RUNNABLE
        at sun.management.ThreadImpl.getThreadInfo1(Native Method)
        at sun.management.ThreadImpl.getThreadInfo(ThreadImpl.java:178)
        at org.apache.maven.surefire.booter.ForkedBooter.generateThreadDump(ForkedBooter.java:649)
        at org.apache.maven.surefire.booter.ForkedBooter.access$400(ForkedBooter.java:82)
        at org.apache.maven.surefire.booter.ForkedBooter$4.update(ForkedBooter.java:340)
        at org.apache.maven.surefire.booter.CommandReader$CommandRunnable.callListeners(CommandReader.java:423)
        at org.apache.maven.surefire.booter.CommandReader$CommandRunnable.exitByConfiguration(CommandReader.java:435)
        at org.apache.maven.surefire.booter.CommandReader$CommandRunnable.run(CommandReader.java:388)
        at java.lang.Thread.run(Thread.java:748)

"Attach Listener" 
   java.lang.Thread.State: RUNNABLE

"Signal Dispatcher" 
   java.lang.Thread.State: RUNNABLE

"Finalizer" 
   java.lang.Thread.State: WAITING
        at java.lang.Object.wait(Native Method)
        at java.lang.ref.ReferenceQueue.remove(ReferenceQueue.java:144)
        at java.lang.ref.ReferenceQueue.remove(ReferenceQueue.java:165)
        at java.lang.ref.Finalizer$FinalizerThread.run(Finalizer.java:216)

"Reference Handler" 
   java.lang.Thread.State: WAITING
        at java.lang.Object.wait(Native Method)
        at java.lang.Object.wait(Object.java:502)
        at java.lang.ref.Reference.tryHandlePending(Reference.java:191)
        at java.lang.ref.Reference$ReferenceHandler.run(Reference.java:153)

"main" 
   java.lang.Thread.State: TIMED_WAITING
        at java.lang.Thread.sleep(Native Method)
        at ru.yandex.qatools.ashot.shooting.ViewportPastingDecorator.waitForScrolling(ViewportPastingDecorator.java:114)
        at ru.yandex.qatools.ashot.shooting.ViewportPastingDecorator.getScreenshot(ViewportPastingDecorator.java:52)
        at ru.yandex.qatools.ashot.shooting.ViewportPastingDecorator.getScreenshot(ViewportPastingDecorator.java:35)
        at ru.yandex.qatools.ashot.AShot.takeScreenshot(AShot.java:145)
        at baseClasses.SeleniumUtils.Capturefullscreenshot(SeleniumUtils.java:3724)
        at baseClasses.TestListenerAdapter.onTestFailure(TestListenerAdapter.java:172)
        at org.testng.internal.Invoker.runTestListeners(Invoker.java:1895)
        at org.testng.internal.Invoker.runTestListeners(Invoker.java:1879)
        at org.testng.internal.Invoker.invokeMethod(Invoker.java:778)
        at org.testng.internal.Invoker.invokeTestMethod(Invoker.java:901)
        at org.testng.internal.Invoker.invokeTestMethods(Invoker.java:1231)
        at org.testng.internal.TestMethodWorker.invokeTestMethods(TestMethodWorker.java:127)
        at org.testng.internal.TestMethodWorker.run(TestMethodWorker.java:111)
        at org.testng.TestRunner.privateRun(TestRunner.java:767)
        at org.testng.TestRunner.run(TestRunner.java:617)
        at org.testng.SuiteRunner.runTest(SuiteRunner.java:334)
        at org.testng.SuiteRunner.runSequentially(SuiteRunner.java:329)
        at org.testng.SuiteRunner.privateRun(SuiteRunner.java:291)
        at org.testng.SuiteRunner.run(SuiteRunner.java:240)
        at org.testng.SuiteRunnerWorker.runSuite(SuiteRunnerWorker.java:52)
        at org.testng.SuiteRunnerWorker.run(SuiteRunnerWorker.java:86)
        at org.testng.TestNG.runSuitesSequentially(TestNG.java:1198)
        at org.testng.TestNG.runSuitesLocally(TestNG.java:1123)
        at org.testng.TestNG.run(TestNG.java:1031)
        at org.apache.maven.surefire.testng.TestNGExecutor.run(TestNGExecutor.java:284)
        at org.apache.maven.surefire.testng.TestNGXmlTestSuite.execute(TestNGXmlTestSuite.java:75)
        at org.apache.maven.surefire.testng.TestNGProvider.invoke(TestNGProvider.java:119)
        at org.apache.maven.surefire.booter.ForkedBooter.runSuitesInProcess(ForkedBooter.java:428)
        at org.apache.maven.surefire.booter.ForkedBooter.execute(ForkedBooter.java:162)
        at org.apache.maven.surefire.booter.ForkedBooter.run(ForkedBooter.java:562)
        at org.apache.maven.surefire.booter.ForkedBooter.main(ForkedBooter.java:548)



